%YAML 1.1
%TAG !u! tag:unity3d.com,2011:
--- !u!74 &7400000
AnimationClip:
  m_ObjectHideFlags: 0
  m_PrefabParentObject: {fileID: 0}
  m_PrefabInternal: {fileID: 0}
  m_Name: OutTerrmius
  serializedVersion: 6
  m_Legacy: 0
  m_Compressed: 0
  m_UseHighQualityCurve: 1
  m_RotationCurves: []
  m_CompressedRotationCurves: []
  m_EulerCurves: []
  m_PositionCurves: []
  m_ScaleCurves: []
  m_FloatCurves: []
  m_PPtrCurves:
  - curve:
    - time: 0
      value: {fileID: 21300000, guid: 56cefd5ddeb4b3c4f8e07d8e2de7db1a, type: 3}
    - time: 0.083333336
      value: {fileID: 21300000, guid: 4a562a8031c318a4a95156bca3680bbc, type: 3}
    - time: 0.16666667
      value: {fileID: 21300000, guid: 5dc9bec59e4bcfa44a966e2c1628a595, type: 3}
    - time: 0.25
      value: {fileID: 21300000, guid: cd898074db4b963488cb760970cbc860, type: 3}
    - time: 0.33333334
      value: {fileID: 21300000, guid: f0e79b0ed3c1f8e4a965e1389d897af3, type: 3}
    - time: 0.41666666
      value: {fileID: 21300000, guid: 12ea5a1e8ec9fcb4b8a88f5708adadc8, type: 3}
    - time: 0.5
      value: {fileID: 21300000, guid: dd691ca31db106945969919d997cbea9, type: 3}
    - time: 0.5833333
      value: {fileID: 21300000, guid: 52d04c3b939751d45b537e06b7732708, type: 3}
    - time: 0.6666667
      value: {fileID: 21300000, guid: 1202f220ea4fa2a40a858aab28245b3c, type: 3}
    - time: 0.75
      value: {fileID: 21300000, guid: 433736ee2beadb44dacb7fb371e528e2, type: 3}
    - time: 0.8333333
      value: {fileID: 21300000, guid: 10dacd94ab6089546a2e44297af1bd25, type: 3}
    - time: 0.9166667
      value: {fileID: 21300000, guid: 93dbe72a3ccd4d0409b72c3679f5e3a6, type: 3}
    - time: 1
      value: {fileID: 21300000, guid: e45657fe5d46d4642885bc33edb459d8, type: 3}
    - time: 1.0833334
      value: {fileID: 21300000, guid: 84235f72a3bcec845be1b9e0fd94bec7, type: 3}
    - time: 1.1666666
      value: {fileID: 21300000, guid: 118491d4b070fba44959e9b86d85375d, type: 3}
    - time: 1.25
      value: {fileID: 21300000, guid: 969dbe4abb1301a43b5ca83c704e6ffe, type: 3}
    - time: 1.3333334
      value: {fileID: 21300000, guid: 0f2d2ac731570d94aaedfa1798ce2b80, type: 3}
    - time: 1.4166666
      value: {fileID: 21300000, guid: c149f7184fc1ebc4d9734aa9fcd1c9c9, type: 3}
    attribute: m_Sprite
    path: 
    classID: 212
    script: {fileID: 0}
  m_SampleRate: 12
  m_WrapMode: 0
  m_Bounds:
    m_Center: {x: 0, y: 0, z: 0}
    m_Extent: {x: 0, y: 0, z: 0}
  m_ClipBindingConstant:
    genericBindings:
    - serializedVersion: 2
      path: 0
      attribute: 0
      script: {fileID: 0}
      typeID: 212
      customType: 23
      isPPtrCurve: 1
    pptrCurveMapping:
    - {fileID: 21300000, guid: 56cefd5ddeb4b3c4f8e07d8e2de7db1a, type: 3}
    - {fileID: 21300000, guid: 4a562a8031c318a4a95156bca3680bbc, type: 3}
    - {fileID: 21300000, guid: 5dc9bec59e4bcfa44a966e2c1628a595, type: 3}
    - {fileID: 21300000, guid: cd898074db4b963488cb760970cbc860, type: 3}
    - {fileID: 21300000, guid: f0e79b0ed3c1f8e4a965e1389d897af3, type: 3}
    - {fileID: 21300000, guid: 12ea5a1e8ec9fcb4b8a88f5708adadc8, type: 3}
    - {fileID: 21300000, guid: dd691ca31db106945969919d997cbea9, type: 3}
    - {fileID: 21300000, guid: 52d04c3b939751d45b537e06b7732708, type: 3}
    - {fileID: 21300000, guid: 1202f220ea4fa2a40a858aab28245b3c, type: 3}
    - {fileID: 21300000, guid: 433736ee2beadb44dacb7fb371e528e2, type: 3}
    - {fileID: 21300000, guid: 10dacd94ab6089546a2e44297af1bd25, type: 3}
    - {fileID: 21300000, guid: 93dbe72a3ccd4d0409b72c3679f5e3a6, type: 3}
    - {fileID: 21300000, guid: e45657fe5d46d4642885bc33edb459d8, type: 3}
    - {fileID: 21300000, guid: 84235f72a3bcec845be1b9e0fd94bec7, type: 3}
    - {fileID: 21300000, guid: 118491d4b070fba44959e9b86d85375d, type: 3}
    - {fileID: 21300000, guid: 969dbe4abb1301a43b5ca83c704e6ffe, type: 3}
    - {fileID: 21300000, guid: 0f2d2ac731570d94aaedfa1798ce2b80, type: 3}
    - {fileID: 21300000, guid: c149f7184fc1ebc4d9734aa9fcd1c9c9, type: 3}
  m_AnimationClipSettings:
    serializedVersion: 2
    m_AdditiveReferencePoseClip: {fileID: 0}
    m_AdditiveReferencePoseTime: 0
    m_StartTime: 0
    m_StopTime: 1.5
    m_OrientationOffsetY: 0
    m_Level: 0
    m_CycleOffset: 0
    m_HasAdditiveReferencePose: 0
    m_LoopTime: 0
    m_LoopBlend: 0
    m_LoopBlendOrientation: 0
    m_LoopBlendPositionY: 0
    m_LoopBlendPositionXZ: 0
    m_KeepOriginalOrientation: 0
    m_KeepOriginalPositionY: 1
    m_KeepOriginalPositionXZ: 0
    m_HeightFromFeet: 0
    m_Mirror: 0
  m_EditorCurves: []
  m_EulerEditorCurves: []
  m_HasGenericRootTransform: 0
  m_HasMotionFloatCurves: 0
  m_GenerateMotionCurves: 0
  m_Events: []
